<?xml version="1.0" encoding="UTF-8"?>
<svg width="24px" height="15px" viewBox="0 0 24 15" version="1.1" xmlns="http://www.w3.org/2000/svg" xmlns:xlink="http://www.w3.org/1999/xlink">
    <!-- Generator: sketchtool 53 (72520) - https://sketchapp.com -->
    <title>9CB37BAB-E7F4-48D3-9B03-0E7101E49497</title>
    <desc>Created with sketchtool.</desc>
    <g id="UI" stroke="none" stroke-width="1" fill="none" fill-rule="evenodd">
        <g id="Item" transform="translate(-256.000000, -297.000000)">
            <g id="Group-5" transform="translate(256.000000, 292.000000)">
                <g id="scale-digital">
                    <g id="Frame_-_24px">
                        <rect id="Rectangle" x="0" y="0" width="24" height="24"></rect>
                    </g>
                    <g id="Line_Icons" transform="translate(0.000000, 5.000000)" fill="#2F2F2F">
                        <g id="Group">
                            <circle id="Oval" cx="14" cy="11" r="1"></circle>
                            <circle id="Oval" cx="17" cy="11" r="1"></circle>
                            <path d="M20.961,6.726 L20.945,6.73 C20.826,6.312 20.457,6 20,6 L18,6 L18,4 L21,4 C21.266,4 21.52,3.895 21.707,3.707 L23.707,1.707 L22.293,0.293 L20.586,2 L3.414,2 L1.707,0.293 L0.293,1.707 L2.293,3.707 C2.48,3.895 2.734,4 3,4 L6,4 L6,6 L4,6 C3.543,6 3.174,6.312 3.055,6.73 L3.039,6.726 L1.313,12.764 C1.154,13.321 1.25,13.887 1.576,14.32 C1.902,14.753 2.421,15 3,15 L21,15 C21.579,15 22.098,14.752 22.424,14.319 C22.75,13.886 22.846,13.32 22.687,12.763 L20.961,6.726 Z M8,4 L16,4 L16,6 L8,6 L8,4 Z M3.326,13 L4.754,8 L19.246,8 L20.674,13 L3.326,13 Z" id="Shape" fill-rule="nonzero"></path>
                            <rect id="Rectangle" x="6" y="10" width="6" height="2"></rect>
                        </g>
                    </g>
                </g>
            </g>
        </g>
    </g>
</svg>